<?xml version="1.0" encoding="UTF-8" standalone="no"?>
<svg
   xmlns:dc="http://purl.org/dc/elements/1.1/"
   xmlns:cc="http://creativecommons.org/ns#"
   xmlns:rdf="http://www.w3.org/1999/02/22-rdf-syntax-ns#"
   xmlns:svg="http://www.w3.org/2000/svg"
   xmlns="http://www.w3.org/2000/svg"
   xmlns:sodipodi="http://sodipodi.sourceforge.net/DTD/sodipodi-0.dtd"
   xmlns:inkscape="http://www.inkscape.org/namespaces/inkscape"
   version="1.1"
   width="210.00mm"
   height="297.00mm"
   viewBox="0 0 210.00 297.00"
   id="svg2"
   inkscape:version="0.48.4 r9939"
   sodipodi:docname="1cabine_page1.svg">
  <metadata
     id="metadata86">
    <rdf:RDF>
      <cc:Work
         rdf:about="">
        <dc:format>image/svg+xml</dc:format>
        <dc:type
           rdf:resource="http://purl.org/dc/dcmitype/StillImage" />
      </cc:Work>
    </rdf:RDF>
  </metadata>
  <defs
     id="defs84" />
  <sodipodi:namedview
     pagecolor="#ffffff"
     bordercolor="#666666"
     borderopacity="1"
     objecttolerance="10"
     gridtolerance="10"
     guidetolerance="10"
     inkscape:pageopacity="0"
     inkscape:pageshadow="2"
     inkscape:window-width="1360"
     inkscape:window-height="743"
     id="namedview82"
     showgrid="false"
     inkscape:zoom="1.2685914"
     inkscape:cx="674.74138"
     inkscape:cy="594.31852"
     inkscape:window-x="0"
     inkscape:window-y="0"
     inkscape:window-maximized="1"
     inkscape:current-layer="svg2" />
  <style
     type="text/css"
     id="style4">
    path {
        fill: none;
        stroke-linecap: butt;
        stroke-linejoin: bevel;
        stroke-dasharray: none;
    }
    path.outer {
        stroke: #000000;
        stroke-dasharray: none;
        stroke-dashoffset: 0;
        stroke-width: 0.3;
        stroke-opacity: 1.0;
    }
    path.convex {
        stroke: #000000;
        stroke-dasharray: 0.50,1.00;
        stroke-dashoffset:0;
        stroke-width:0.2;
        stroke-opacity: 1.0
    }
    path.concave {
        stroke: #000000;
        stroke-dasharray: 1.00,0.50,0.20,0.50;
        stroke-dashoffset: 0;
        stroke-width: 0.2;
        stroke-opacity: 1.0
    }
    path.freestyle {
        stroke: #000000;
        stroke-dasharray: none;
        stroke-dashoffset: 0;
        stroke-width: 0.2;
        stroke-opacity: 1.0
    }
    path.outer_background {
        stroke: #ffffff;
        stroke-opacity: 1.0;
        stroke-width: 0.5
    }
    path.inner_background {
        stroke: #ffffff;
        stroke-opacity: 1.0;
        stroke-width: 0.2
    }
    path.sticker {
        fill: #e5e5e5;
        stroke: none;
        fill-opacity: 1.0;
    }
    path.arrow {
        fill: #000;
    }
    text {
        font-style: normal;
        fill: #000000;
        fill-opacity: 1.0;
        stroke: none;
    }
    text, tspan {
        text-anchor:middle;
    }
    </style>
  <g
     id="g6"
     transform="translate(-326.06318,-206.16755)">
    <g
       id="g8">
      <text
         transform="translate(60.851005,289.99999)"
         style="font-size:10px;font-style:normal;text-anchor:middle;fill:#000000;fill-opacity:1;stroke:none"
         id="text10">
        <tspan
           id="tspan12"
           style="text-anchor:middle">[I1] Island 1</tspan>
      </text>
      <path
         class="sticker"
         d="m 43.363464,276.23549 -0.876177,3.16244 -2.325606,0.60206 -2.300668,-2.34001 z m 73.338526,-18.98062 -3.08419,11.12749 -36.315086,9.39731 -8.094594,-8.23474 z"
         id="path14"
         inkscape:connector-curvature="0"
         style="fill:#e5e5e5;fill-opacity:1;stroke:none" />
      <path
         class="convex"
         d="m 13.329583,163.36591 94.991847,4.74944 M 60.872109,112.57232 113.98029,126.32013 M 46.504506,108.85307 34.179111,105.66245 m -3.291178,9.94503 81.894187,16.62512 m -73.950773,42.09522 69.192233,-0.24429 m -80.433222,-49.67429 84.266392,12.72631 m -73.025396,60.51062 69.192216,0.24429 M 30.887884,256.36651 112.78212,239.7414 m -53.156218,-53.7544 -14.490802,0 m 15.736968,73.41467 53.108222,-13.74779 m -70.194765,-53.70531 64.066155,-0.0218 m -90.845707,-39.67601 91.602087,11.30606 m -62.103595,99.56414 -12.32541,3.1906 m 3.681958,11.34845 5.502451,-1.42449 m -0.12736,-6.14106 -7.031623,1.81612 m 7.581051,-91.88512 64.066158,0.0218 m -38.64357,89.49768 47.49387,-12.29006 M 17.005957,219.72329 108.60806,208.41721 M 66.608441,264.05786 115.28214,251.48722 M 59.625902,185.987 l 48.166418,0 M 25.15521,197.59789 11.903,197.5511 m 54.705489,-89.63494 48.673661,12.57065 m -72.046013,-18.60725 -7.031601,-1.81611 m -22.87497,108.54464 94.991854,-4.74945 m -80.731122,43.7061 84.266432,-12.72629 m -91.866209,-42.91115 -8.202236,-0.007"
         id="path16"
         inkscape:connector-curvature="0"
         style="fill:none;stroke:#000000;stroke-width:0.2;stroke-linecap:butt;stroke-linejoin:bevel;stroke-opacity:1;stroke-dasharray:0.5, 1;stroke-dashoffset:0" />
      <path
         class="concave"
         d="m 29.059668,224.00144 -9.934695,1.01953 m 78.223602,4.92352 13.663885,-1.97169 m -13.66387,-85.94328 13.66388,1.97169 m -81.952772,3.97135 -9.934713,-1.01952"
         id="path18"
         inkscape:connector-curvature="0"
         style="fill:none;stroke:#000000;stroke-width:0.2;stroke-linecap:butt;stroke-linejoin:bevel;stroke-opacity:1;stroke-dasharray:1, 0.5, 0.2, 0.5;stroke-dashoffset:0" />
      <path
         class="outer"
         d="m 60.872109,112.57232 0.783771,-0.33201 1.503017,-0.89557 1.389317,-1.09278 1.259286,-1.27956 0.800989,-1.05624 0.307736,-0.36319 0.947594,-1.47335 0.755616,-1.63102 0.546299,-1.76613 0.04242,-0.2534 47.493856,12.29006 -1.41986,5.76768 -1.30186,5.83332 -1.19817,5.91247 -0.92537,4.90295 -0.84428,6.86566 -0.75171,6.11362 -0.7517,6.11365 -0.901,7.32831 -0.28663,4.55856 -0.29785,5.96818 -0.17189,5.96372 -0.0594,5.93975 0.0594,5.93974 0.17189,5.96372 0.29785,5.96818 0.28664,4.55857 0.901,7.32832 0.75169,6.11364 0.75171,6.11363 0.84427,6.86565 0.92539,4.90295 1.19817,5.91248 1.30185,5.83334 1.41985,5.76765 -3.08419,11.12749 -36.315089,9.39731 -8.094594,-8.23474 -0.04242,-0.25338 -0.546299,-1.76614 -0.75563,-1.63103 -0.94758,-1.47334 -0.307746,-0.36318 -0.800997,-1.05625 -1.259278,-1.27958 -1.389318,-1.09277 -1.503009,-0.89557 -0.783771,-0.33202 -0.817214,-0.41163 -1.676339,-0.55077 -1.731929,-0.27766 -1.76749,0.0109 -1.781016,0.31415 -1.723528,0.61195 -1.595583,0.87788 -1.457769,1.12039 -1.305193,1.33874 -0.511542,0.68535 -0.637263,0.77555 -0.980705,1.54072 -0.794381,1.66357 -0.59817,1.76817 -0.257842,1.22549 -0.129566,0.57852 -0.162843,1.78123 0.06701,1.81524 0.310156,1.82937 0.0426,0.1367 -0.876177,3.16244 -2.325606,0.60206 -2.300668,-2.34001 -1.656532,-5.74943 -2.025426,-5.59902 -3.291171,-9.94502 -3.297586,-8.80177 -2.690434,-7.16597 -2.887136,-7.68763 -2.887755,-7.69017 -2.119016,-5.29768 -3.676391,-11.1152 -1.426566,-11.05699 -0.114715,-5.63099 -0.323212,-5.97425 7.039356,0.009 0.138908,1.79656 0.374282,1.75553 0.590032,1.66494 0.38287,0.75547 0.417967,0.83485 0.979924,1.45446 1.147025,1.3144 1.298029,1.158 1.321744,0.90888 0.11462,0.0942 1.585006,0.96331 1.667478,0.65002 1.749705,0.41137 1.815431,0.15496 1.806855,-0.11399 1.724757,-0.37207 1.616251,-0.67549 1.490772,-0.97059 0.105269,-0.0934 1.293514,-0.89331 1.262028,-1.1409 1.106161,-1.29728 0.919521,-1.50636 0.372947,-0.85975 0.364799,-0.75508 0.55011,-1.66423 0.332944,-1.75336 0.101722,-1.7889 -0.101734,-1.7889 -0.332932,-1.75336 -0.550114,-1.66422 -0.364788,-0.75509 -0.372954,-0.85975 -0.919528,-1.50634 -1.106173,-1.29729 -1.262013,-1.1409 -1.293517,-0.89333 -0.105244,-0.0934 -1.49079,-0.97058 -1.616251,-0.67551 -1.724757,-0.37205 -1.806848,-0.114 -1.815438,0.15496 -1.749702,0.41138 -1.667481,0.65 -1.584988,0.96332 -0.114625,0.0942 -13.252223,0.0468 1.426583,-11.05698 3.67639,-11.11518 2.119012,-5.29769 2.887762,-7.69016 2.887176,-7.68767 2.690435,-7.16597 3.297575,-8.80176 3.291178,-9.94503 2.025425,-5.599 1.656518,-5.749416 5.50244,1.424477 -0.04259,0.136718 -0.310156,1.829356 -0.06702,1.815229 0.162836,1.781236 0.129573,0.57851 0.257828,1.22549 0.598192,1.76818 0.79437,1.66357 0.980697,1.54071 0.637282,0.77556 0.511546,0.68533 1.305192,1.33874 1.457766,1.1204 1.595583,0.87789 1.723517,0.61194 1.78102,0.31415 1.767497,0.0109 1.731921,-0.27765 1.676344,-0.55078 z m -11.259348,23.6657 -0.644724,-0.93813 -0.258107,-0.28895 -0.499725,-0.56015 -0.862569,-0.74843 -0.958115,-0.63601 -1.044713,-0.51184 -1.121934,-0.37584 -1.189541,-0.22795 -1.209047,-0.067 -1.178742,0.0929 -1.13663,0.24364 -1.083225,0.385 -1.017556,0.51728 -0.312168,0.21249 -0.627495,0.42795 -0.849847,0.75443 -0.748649,0.85905 -0.635609,0.95448 -0.51098,1.0406 -0.374176,1.11765 -0.225685,1.1854 -0.05157,0.94983 -0.01358,0.25462 0.09607,1.17548 0.24708,1.13386 0.38863,1.08035 0.521336,1.0152 0.644553,0.93814 0.757825,0.84907 0.862837,0.7485 0.958282,0.63607 1.001328,0.49064 0.04304,0.0211 1.121335,0.3757 1.189109,0.22784 1.208607,0.0669 1.178495,-0.093 0.353918,-0.0759 0.782743,-0.16775 1.08258,-0.38515 1.016934,-0.51743 0.939831,-0.64037 0.850428,-0.75423 0.748586,-0.85902 0.636097,-0.95432 0.51127,-1.04049 0.374138,-1.1176 0.04768,-0.25043 0.179537,-0.93457 0.06478,-1.20509 -0.09605,-1.17542 -0.246167,-1.13357 -0.388973,-1.0804 z m -3.3e-5,99.49794 0.521481,-1.01518 0.388972,-1.0804 0.246156,-1.13358 0.09605,-1.1754 -0.06477,-1.20509 -0.179529,-0.93459 -0.04769,-0.25041 -0.374145,-1.1176 -0.511259,-1.04051 -0.636101,-0.9543 -0.748586,-0.85902 -0.85042,-0.75424 -0.939846,-0.64037 -1.016934,-0.51742 -1.082573,-0.38515 -0.782747,-0.16776 -0.353914,-0.0759 -1.178506,-0.093 -1.208604,0.0669 -1.189101,0.22785 -1.121346,0.37569 -0.04304,0.0211 -1.001317,0.49065 -0.958286,0.63606 -0.862845,0.74851 -0.757828,0.84907 -0.644542,0.93814 -0.52134,1.0152 -0.388626,1.08035 -0.247087,1.13386 -0.09607,1.17548 0.01358,0.25462 0.05156,0.94982 0.225693,1.1854 0.374168,1.11765 0.510987,1.04061 0.635605,0.95449 0.748642,0.85906 0.849854,0.75442 0.627492,0.42795 0.312179,0.21249 1.017567,0.51727 1.083225,0.385 1.136612,0.24363 1.178764,0.0929 1.209036,-0.067 1.189537,-0.22794 1.121949,-0.37583 1.044702,-0.51185 0.958122,-0.636 0.862562,-0.74843 0.499725,-0.56015 0.258099,-0.28895 z"
         id="path20"
         inkscape:connector-curvature="0"
         style="fill:none;stroke:#000000;stroke-width:0.30000001;stroke-linecap:butt;stroke-linejoin:bevel;stroke-opacity:1;stroke-dasharray:none;stroke-dashoffset:0" />
      <g
         id="g22">
        <path
           transform="matrix(-9.68086,-2.50619,2.50619,-9.68086,40.612274,95.02628)"
           class="arrow"
           d="M 0,0 1,1 0,0.25 -1,1 z"
           id="path24"
           inkscape:connector-curvature="0"
           style="fill:#000000;stroke-linecap:butt;stroke-linejoin:bevel;stroke-dasharray:none" />
        <text
           transform="translate(42.867844,90.313504)"
           style="font-size:10px;font-style:normal;text-anchor:middle;fill:#000000;fill-opacity:1;stroke:none"
           id="text26">
          <tspan
             id="tspan28"
             style="text-anchor:middle">1</tspan>
        </text>
      </g>
      <text
         transform="matrix(-0.968085,0.250621,-0.250621,-0.968085,40.740442,277.44295)"
         style="font-size:2.55999994px;font-style:normal;text-anchor:middle;fill:#000000;fill-opacity:1;stroke:none"
         id="text30">
        <tspan
           id="tspan32"
           style="text-anchor:middle">1</tspan>
      </text>
      <g
         id="g34">
        <path
           transform="matrix(9.999938,-0.035307,0.035307,9.999938,18.529112,174.3995)"
           class="arrow"
           d="M 0,0 1,1 0,0.25 -1,1 z"
           id="path36"
           inkscape:connector-curvature="0"
           style="fill:#000000;stroke-linecap:butt;stroke-linejoin:bevel;stroke-dasharray:none" />
        <text
           transform="translate(18.560887,187.39944)"
           style="font-size:10px;font-style:normal;text-anchor:middle;fill:#000000;fill-opacity:1;stroke:none"
           id="text38">
          <tspan
             id="tspan40"
             style="text-anchor:middle">2</tspan>
        </text>
      </g>
      <g
         id="g42">
        <path
           transform="matrix(-9.999992,-0.012701,0.012701,-9.999992,14.984751,185.95033)"
           class="arrow"
           d="M 0,0 1,1 0,0.25 -1,1 z"
           id="path44"
           inkscape:connector-curvature="0"
           style="fill:#000000;stroke-linecap:butt;stroke-linejoin:bevel;stroke-dasharray:none" />
        <text
           transform="translate(14.996182,180.95034)"
           style="font-size:10px;font-style:normal;text-anchor:middle;fill:#000000;fill-opacity:1;stroke:none"
           id="text46">
          <tspan
             id="tspan48"
             style="text-anchor:middle">3</tspan>
        </text>
      </g>
      <g
         id="g50">
        <path
           transform="matrix(-9.681116,-2.505198,2.505198,-9.681116,92.95508,108.5741)"
           class="arrow"
           d="M 0,0 1,1 0,0.25 -1,1 z"
           id="path52"
           inkscape:connector-curvature="0"
           style="fill:#000000;stroke-linecap:butt;stroke-linejoin:bevel;stroke-dasharray:none" />
        <text
           transform="translate(95.20976,103.86109)"
           style="font-size:10px;font-style:normal;text-anchor:middle;fill:#000000;fill-opacity:1;stroke:none"
           id="text54">
          <tspan
             id="tspan56"
             style="text-anchor:middle">4</tspan>
        </text>
      </g>
      <text
         transform="matrix(-0.968112,0.25052,-0.25052,-0.968112,93.405989,265.1425)"
         style="font-size:9px;font-style:normal;text-anchor:middle;fill:#000000;fill-opacity:1;stroke:none"
         id="text58">
        <tspan
           id="tspan60"
           style="text-anchor:middle">4</tspan>
      </text>
    </g>
    <g
       id="g62">
      <text
         transform="translate(10.742254,78.903063)"
         style="font-size:10px;font-style:normal;text-anchor:middle;fill:#000000;fill-opacity:1;stroke:none"
         id="text64">
        <tspan
           id="tspan66"
           style="text-anchor:middle">[I1] Island 1</tspan>
      </text>
      <path
         class="sticker"
         d="m 5,56.564386 0.00824,-7.651582 4.853922,-2.795443 6.62234,3.832921 z m 11.484506,6.795287 -0.01357,4.064337 -2.581657,1.479059 -3.513041,-2.043933 z"
         id="path68"
         inkscape:connector-curvature="0"
         style="fill:#e5e5e5;fill-opacity:1;stroke:none" />
      <path
         class="convex"
         d="m 14.812451,57.436238 -7.11894,4.074782 m 2.682731,5.348116 6.108264,-3.499463 m 1e-6,-13.409391 L 5,56.564386"
         id="path70"
         inkscape:connector-curvature="0"
         style="fill:none;stroke:#000000;stroke-width:0.2;stroke-linecap:butt;stroke-linejoin:bevel;stroke-opacity:1;stroke-dasharray:0.5, 1;stroke-dashoffset:0" />
      <path
         class="outer"
         d="m 14.854725,58.282162 0.313481,1.738444 0.545785,1.710087 0.770515,1.62898 -0.01357,4.064337 -2.581657,1.479059 L 10.376242,66.859136 7.693511,61.51102 5,56.564386 l 0.00824,-7.651582 4.853922,-2.795443 6.62234,3.832921 -0.696929,1.444861 -0.552757,1.649425 -0.344052,1.71034 -0.129478,1.749069 0.05116,0.932261 z"
         id="path72"
         inkscape:connector-curvature="0"
         style="fill:none;stroke:#000000;stroke-width:0.30000001;stroke-linecap:butt;stroke-linejoin:bevel;stroke-opacity:1;stroke-dasharray:none;stroke-dashoffset:0" />
      <text
         transform="matrix(0.866564,-0.499067,0.499067,0.866564,10.146985,52.223722)"
         style="font-size:5.96000004px;font-style:normal;text-anchor:middle;fill:#000000;fill-opacity:1;stroke:none"
         id="text74">
        <tspan
           id="tspan76"
           style="text-anchor:middle">I1:2</tspan>
      </text>
      <text
         transform="matrix(-0.86769,0.497107,-0.497107,-0.86769,13.745327,65.659146)"
         style="font-size:3.17000008px;font-style:normal;text-anchor:middle;fill:#000000;fill-opacity:1;stroke:none"
         id="text78">
        <tspan
           id="tspan80"
           style="text-anchor:middle">I1:3</tspan>
      </text>
    </g>
  </g>
  <style
     id="style3970"
     type="text/css">
    path {
        fill: none;
        stroke-linecap: butt;
        stroke-linejoin: bevel;
        stroke-dasharray: none;
    }
    path.outer {
        stroke: #000000;
        stroke-dasharray: none;
        stroke-dashoffset: 0;
        stroke-width: 0.3;
        stroke-opacity: 1.0;
    }
    path.convex {
        stroke: #000000;
        stroke-dasharray: 0.50,1.00;
        stroke-dashoffset:0;
        stroke-width:0.2;
        stroke-opacity: 1.0
    }
    path.concave {
        stroke: #000000;
        stroke-dasharray: 1.00,0.50,0.20,0.50;
        stroke-dashoffset: 0;
        stroke-width: 0.2;
        stroke-opacity: 1.0
    }
    path.freestyle {
        stroke: #000000;
        stroke-dasharray: none;
        stroke-dashoffset: 0;
        stroke-width: 0.2;
        stroke-opacity: 1.0
    }
    path.outer_background {
        stroke: #ffffff;
        stroke-opacity: 1.0;
        stroke-width: 0.5
    }
    path.inner_background {
        stroke: #ffffff;
        stroke-opacity: 1.0;
        stroke-width: 0.2
    }
    path.sticker {
        fill: #e5e5e5;
        stroke: none;
        fill-opacity: 1.0;
    }
    path.arrow {
        fill: #000;
    }
    text {
        font-style: normal;
        fill: #000000;
        fill-opacity: 1.0;
        stroke: none;
    }
    text, tspan {
        text-anchor:middle;
    }
    </style>
  <path
     id="path3980"
     d="m -156.88091,-69.017783 0.81413,0.71664 0.90153,0.60901 0.97882,0.49128 1.04592,0.36344 1.10303,0.22548 1.14997,0.0774 1.1499,-0.0774 1.10304,-0.22548 1.04594,-0.36344 0.9788,-0.49128 0.90156,-0.60902 0.8141,-0.71663 0.71663,-0.81413 0.60903,-0.90153 0.49128,-0.97879 0.36345,-1.04596 0.22547,-1.10301 0.0774,-1.14996 -0.0774,-1.14993 -0.22549,-1.10301 -0.36345,-1.04598 -0.49131,-0.97881 -0.60899,-0.9015 -0.71663,-0.81414 -0.81412,-0.71663 -0.90154,-0.60903 -0.97878,-0.49128 -1.04601,-0.36345 -1.10297,-0.22547 -1.14995,-0.0774 -1.14996,0.0774 -1.10301,0.22548 -1.04595,0.36346 -0.97884,0.49128 -0.90147,0.609 -0.81416,0.71663 -0.71662,0.81414 -0.60904,0.90153 -0.49127,0.9788 -0.36343,1.04596 -0.22548,1.10301 -0.0774,1.14994 0.0774,1.14995 0.22549,1.10301 0.36343,1.04597 0.4913,0.9788 0.60901,0.90152 z m -23.77083,-32.555417 65.53564,-6.04321 0,65.535637 -65.53564,-6.04318 z"
     class="outer"
     inkscape:connector-curvature="0"
     style="fill:none;stroke:#000000;stroke-width:0.30000001;stroke-linecap:butt;stroke-linejoin:bevel;stroke-opacity:1;stroke-dasharray:none;stroke-dashoffset:0" />
  <path
     id="path4008"
     d="m 167.54539,135.71104 1e-5,-1.10731 m -2e-5,-16.73776 0,-1.12583 m 2e-5,20.06606 -1e-5,-1.09516 m 2e-5,14.40201 0,-1.09519 m -1e-5,-5.66405 0,-1.10729 m 1e-5,6.77134 0,-1.10727 m -3e-5,-20.06611 1e-5,-1.08792 m 0,-2.16921 -1e-5,-1.08798 m 2e-5,-4.48085 -2e-5,-1.15255 m 0,-5.50085 0,-1.0846 m 1e-5,14.39143 0,-1.0846 m -1e-5,-8.9545 -1e-5,-1.0952 m 1e-5,-4.34512 -2e-5,-1.09515 m 5e-5,44.27284 1e-5,-1.08461 m -1e-5,5.50088 0,-1.12582 m -5e-5,-49.7964 2e-5,-1.15256 m 2e-5,41.07304 0,-1.15259 m 1e-5,13.30687 0,-1.15254 m -2e-5,-36.48963 0,-1.12577 m 1e-5,24.30856 0,-1.12584 m 2e-5,7.84719 -1e-5,-1.08795 m -2e-5,-18.94022 1e-5,-1.12584 m 0,11.10436 0,-1.08799 m -3e-5,-25.52571 0,-1.0879 m 2e-5,20.02817 0,-1.15256 m 3e-5,19.96025 0,-1.08461 m -5e-5,-37.75125 1e-5,-1.08463 m 4e-5,43.18824 -1e-5,-1.09519 m -1e-5,-12.21165 0,-1.09517 m -2e-5,-17.65198 1e-5,-1.09516 m 0,9.92115 0,-1.15253 m -3e-5,-23.18275 0,-1.12581 m 2e-5,9.87587 0,-1.10729 m 2e-5,23.34593 0,-1.08461 m 0,2.16919 0,-1.08458 m 0,-8.93179 -1e-5,-1.10732 m 2e-5,27.721 1e-5,-1.10731 m -3e-5,-28.7968 0,-1.08461 m 0,-3.26774 0,-1.10735 m -3e-5,-12.19948 0,-1.1073 m 4e-5,26.61365 -1e-5,-1.12581 m 2e-5,14.43267 -1e-5,-1.12584 m -1e-5,-26.61366 1e-5,-1.15257 m -2e-5,-7.738 0,-1.08799 m 2e-5,27.70164 0,-1.08797 m -1e-5,-7.86653 -1e-5,-1.09519 m 3e-5,26.61369 0,-1.08795 m -1e-5,-7.73806 0,-1.15251"
     class="concave"
     inkscape:connector-curvature="0"
     style="fill:none;stroke:#000000;stroke-width:0.2;stroke-linecap:butt;stroke-linejoin:bevel;stroke-opacity:1;stroke-dasharray:1, 0.5, 0.2, 0.5;stroke-dashoffset:0" />
  <path
     id="path4010"
     d="m 145.04949,105.71169 22.49589,2e-5 c 0.25042,2.82817 -0.0619,17.82703 0,19.09291 l 5.68742,0.68175 0.0787,5.84248 -5.75217,0.55853 c 0.14388,5.34089 0.36647,12.88066 -0.0139,19.83683 l 5.73913,1.27657 0.15731,5.13362 -5.89644,0.80463 -5.77351,10 -10.94891,-1e-5 -5.7735,-9.99999 c 3.7e-4,-17.74245 -4.4e-4,-35.48489 2e-5,-53.22734 z"
     class="outer"
     inkscape:connector-curvature="0"
     style="fill:none;stroke:#000000;stroke-width:0.30000001;stroke-linecap:butt;stroke-linejoin:bevel;stroke-opacity:1;stroke-dasharray:none;stroke-dashoffset:0"
     sodipodi:nodetypes="cccccccccccccc" />
  <text
     id="text4016"
     style="font-size:0.51999998px;font-style:normal;text-anchor:middle;fill:#000000;fill-opacity:1;stroke:none"
     transform="matrix(-10e-6,1,-1,-10e-6,0,0)"
     x="106.2863"
     y="-167.65016">
    <tspan
       id="tspan4018"
       style="text-anchor:middle">I2:2</tspan>
  </text>
  <g
     id="g4151"
     transform="matrix(0.95063892,-0.31029928,0.31029928,0.95063892,185.99749,-88.493415)">
    <g
       transform="translate(-216.67627,27.378268)"
       id="g8-2">
      <text
         transform="translate(33.404388,289.99999)"
         style="font-size:10px;font-style:normal;text-anchor:middle;fill:#000000;fill-opacity:1;stroke:none"
         id="text10-3">
        <tspan
           id="tspan12-2"
           style="text-anchor:middle">[I1] Island 1</tspan>
      </text>
      <path
         class="sticker"
         d="m 29.770984,120.68779 2.04115,-11.36517 16.142601,-5.81754 8.821953,7.45027 z M 52.422591,277.55168 41.138128,279.99999 5,240.20291 8.521935,229.20612 z"
         id="path14-2"
         inkscape:connector-curvature="0"
         style="fill:#e5e5e5;fill-opacity:1;stroke:none" />
      <path
         class="convex"
         d="m 58.876456,143.67374 -25.756968,-0.561 m 28.034264,-12.768 -28.337836,3.75863 m 23.520216,81.42949 -32.843577,-20.75877 m 33.284133,-83.81874 -27.005704,9.73244 m 18.69327,36.02101 -17.0185,-1.33237 m 29.44478,100.1688 -44.110498,-39.43058 m 37.17742,-66.12167 -21.693146,-0.7313 M 59.169234,264.97577 14.274877,221.4666 M 58.710438,117.14257 31.071841,124.86205 M 61.808777,244.06829 19.08757,209.84209 M 41.874309,167.87516 29.276685,166.46572 M 56.440392,272.27879 11.471879,225.89455 M 60.15334,123.58859 32.1334,129.48434 m 6.800619,66.89622 -14.058271,-7.89632 m 36.933025,-50.9282 -28.668811,1.11731 m -24.618027,90.53277 43.900656,48.34556"
         id="path16-1"
         inkscape:connector-curvature="0"
         style="fill:none;stroke:#000000;stroke-width:0.2;stroke-linecap:butt;stroke-linejoin:bevel;stroke-opacity:1;stroke-dasharray:0.5, 1;stroke-dashoffset:0" />
      <path
         class="concave"
         d="M 61.392245,231.27317 21.212234,202.76068"
         id="path18-0"
         inkscape:connector-curvature="0"
         style="fill:none;stroke:#000000;stroke-width:0.2;stroke-linecap:butt;stroke-linejoin:bevel;stroke-opacity:1;stroke-dasharray:1, 0.5, 0.2, 0.5;stroke-dashoffset:0" />
      <path
         class="outer"
         d="m 16.780036,216.11465 2.307534,-6.27256 2.124664,-7.08141 2.280321,-7.98659 1.383193,-6.28985 4.400937,-22.01852 2.169069,-11.08929 0.818556,-6.11475 0.855178,-6.14894 0.02047,-4.43939 -0.324046,-4.56998 -0.682516,-4.61903 -1.061559,-4.62229 -1.300857,-4.17426 2.04115,-11.36517 16.142601,-5.81754 8.821953,7.45027 1.93375,6.18722 1.442902,6.44602 1.000412,6.75615 0.655021,7.2113 -2.932317,6.1177 -4.919,6.31924 -5.493202,6.71582 -6.589945,11.16636 -2.94029,28.5054 17.402113,19.1523 5.056113,15.74031 0.416532,12.79512 -0.918243,11.47694 -1.7213,9.43054 -2.728842,7.30302 -4.017801,5.27289 -11.284463,2.44831 L 5,240.20291 l 3.521935,-10.99679 2.949944,-3.31157 2.802998,-4.42795 z"
         id="path20-7"
         inkscape:connector-curvature="0"
         style="fill:none;stroke:#000000;stroke-width:0.30000001;stroke-linecap:butt;stroke-linejoin:bevel;stroke-opacity:1;stroke-dasharray:none;stroke-dashoffset:0" />
      <text
         transform="matrix(0.940772,-0.33904,0.33904,0.940772,42.66356,114.1282)"
         style="font-size:9px;font-style:normal;text-anchor:middle;fill:#000000;fill-opacity:1;stroke:none"
         id="text22">
        <tspan
           id="tspan24"
           style="text-anchor:middle">I1:1</tspan>
      </text>
      <text
         transform="matrix(-0.672255,-0.74032,0.74032,-0.672255,29.139687,254.58896)"
         style="font-size:9px;font-style:normal;text-anchor:middle;fill:#000000;fill-opacity:1;stroke:none"
         id="text26-3">
        <tspan
           id="tspan28-3"
           style="text-anchor:middle">I1:2</tspan>
      </text>
    </g>
    <g
       transform="matrix(-0.0984873,0.99513831,-0.99513831,-0.0984873,-51.003758,210.03576)"
       id="g30">
      <text
         transform="translate(88.4522,289.99999)"
         style="font-size:10px;font-style:normal;text-anchor:middle;fill:#000000;fill-opacity:1;stroke:none"
         id="text32">
        <tspan
           id="tspan34"
           style="text-anchor:middle">[I1] Island 1</tspan>
      </text>
      <path
         class="convex"
         d="m 114.17737,125.59667 -44.110496,39.43059 m 37.177436,66.12168 -21.693133,0.73129 m 27.889033,25.67308 -28.019932,-5.89574 m 6.800599,-66.89624 -14.058277,7.89634 m 23.58851,31.77543 -17.018498,1.33238 m 29.708008,25.03167 -28.337832,-3.75862 m 23.520192,-81.4295 -32.843573,20.75879 m 35.383903,51.10034 -25.756955,0.561 M 115.09562,137.0736 72.374408,171.2998 m 39.622902,92.69953 -27.638591,-7.71946 m 30.736901,-12.69401 -28.668791,-1.11729 m 8.734331,-29.20182 -12.597621,1.40943 M 109.72721,108.86311 64.758719,155.24734 m 47.697351,-39.08122 -44.89435,43.50917"
         id="path36-6"
         inkscape:connector-curvature="0"
         style="fill:none;stroke:#000000;stroke-width:0.2;stroke-linecap:butt;stroke-linejoin:bevel;stroke-opacity:1;stroke-dasharray:0.5, 1;stroke-dashoffset:0" />
      <path
         class="concave"
         d="M 114.67911,149.86872 74.499083,178.38121"
         id="path38"
         inkscape:connector-curvature="0"
         style="fill:none;stroke:#000000;stroke-width:0.2;stroke-linecap:butt;stroke-linejoin:bevel;stroke-opacity:1;stroke-dasharray:1, 0.5, 0.2, 0.5;stroke-dashoffset:0" />
      <path
         class="outer"
         d="m 76.779407,186.36782 -2.280324,-7.98661 -2.124675,-7.08141 -2.307534,-6.27254 -2.505154,-5.35197 -2.803001,-4.42795 -2.949942,-3.31156 43.900633,-48.34556 4.0178,5.27289 2.72886,7.30301 1.7213,9.43055 0.91825,11.47693 -0.41651,12.79512 -5.05613,15.74031 -17.402103,19.1523 2.940283,28.50542 6.58995,11.16635 5.4932,6.71584 4.919,6.31922 2.93231,6.1177 -0.655,7.21129 -1.00041,6.75616 -1.4429,6.44602 -1.93375,6.18722 -27.00569,-9.73244 1.300849,-4.17424 1.061559,-4.6223 0.68251,-4.61904 0.324041,-4.56996 -0.02047,-4.43941 -0.855178,-6.14893 -0.818565,-6.11475 -2.169073,-11.0893 -4.400939,-22.01851 z"
         id="path40"
         inkscape:connector-curvature="0"
         style="fill:none;stroke:#000000;stroke-width:0.30000001;stroke-linecap:butt;stroke-linejoin:bevel;stroke-opacity:1;stroke-dasharray:none;stroke-dashoffset:0" />
      <g
         id="g42-0">
        <path
           transform="matrix(9.407721,3.3904,-3.3904,9.407721,96.560714,265.32033)"
           class="arrow"
           d="M 0,0 1,1 0,0.25 -1,1 z"
           id="path44-4"
           inkscape:connector-curvature="0"
           style="fill:#000000;stroke-linecap:butt;stroke-linejoin:bevel;stroke-dasharray:none" />
        <text
           transform="translate(93.509351,277.78728)"
           style="font-size:10px;font-style:normal;text-anchor:middle;fill:#000000;fill-opacity:1;stroke:none"
           id="text46-3">
          <tspan
             id="tspan48-6"
             style="text-anchor:middle">1</tspan>
        </text>
      </g>
      <g
         id="g50-0">
        <path
           transform="matrix(-6.722545,7.403203,-7.403203,-6.722545,83.759089,127.763)"
           class="arrow"
           d="M 0,0 1,1 0,0.25 -1,1 z"
           id="path52-3"
           inkscape:connector-curvature="0"
           style="fill:#000000;stroke-linecap:butt;stroke-linejoin:bevel;stroke-dasharray:none" />
        <text
           transform="translate(77.096214,125.7127)"
           style="font-size:10px;font-style:normal;text-anchor:middle;fill:#000000;fill-opacity:1;stroke:none"
           id="text54-9">
          <tspan
             id="tspan56-4"
             style="text-anchor:middle">2</tspan>
        </text>
      </g>
    </g>
  </g>
  <path
     style="fill:none;stroke:#000000;stroke-width:0.2;stroke-linecap:butt;stroke-linejoin:bevel;stroke-opacity:1;stroke-dasharray:1, 0.5, 0.2, 0.5;stroke-dashoffset:0"
     inkscape:connector-curvature="0"
     id="path4219"
     d="m -87.349232,145.97602 -9.934695,1.01953 m 78.223602,4.92352 13.663885,-1.97169 m -13.66387,-85.943284 13.66388,1.97169 m -81.952772,3.97135 -9.934713,-1.01952"
     class="concave" />
  <text
     id="text4265"
     style="font-size:10px;font-style:normal;text-anchor:middle;fill:#000000;fill-opacity:1;stroke:none"
     x="-105.66665"
     y="0.877639">
    <tspan
       style="text-anchor:middle"
       id="tspan4267">[I1] Island 1</tspan>
  </text>
  <path
     style="fill:#e5e5e5;fill-opacity:1;stroke:none"
     inkscape:connector-curvature="0"
     id="path4269"
     d="m -111.4089,-21.461038 0.008,-7.651582 4.85392,-2.795443 6.622342,3.832921 z m 11.484506,6.795287 -0.01357,4.064337 -2.581656,1.479059 -3.51304,-2.043933 z"
     class="sticker" />
  <path
     style="fill:none;stroke:#000000;stroke-width:0.2;stroke-linecap:butt;stroke-linejoin:bevel;stroke-opacity:1;stroke-dasharray:0.5, 1;stroke-dashoffset:0"
     inkscape:connector-curvature="0"
     id="path4271"
     d="m -101.59645,-20.589186 -7.11894,4.074782 m 2.68273,5.348116 6.108266,-3.499463 m 1e-6,-13.409391 -11.484507,6.614104"
     class="convex" />
  <text
     id="text4275"
     style="font-size:5.9600029px;font-style:normal;text-anchor:middle;fill:#000000;fill-opacity:1;stroke:none"
     transform="matrix(0.86656355,-0.49906674,0.49906674,0.86656355,0,0)"
     x="-150.25714"
     y="-113.40553">
    <tspan
       style="text-anchor:middle"
       id="tspan4277">I1:2</tspan>
  </text>
  <text
     id="text4279"
     style="font-size:3.17000222px;font-style:normal;text-anchor:middle;fill:#000000;fill-opacity:1;stroke:none"
     transform="matrix(-0.86768943,0.49710668,-0.49710668,-0.86768943,0,0)"
     x="124.59795"
     y="72.581818">
    <tspan
       style="text-anchor:middle"
       id="tspan4281">I1:3</tspan>
  </text>
  <path
     style="fill:none;stroke:#000000;stroke-width:1px;stroke-linecap:butt;stroke-linejoin:miter;stroke-opacity:1;stroke-dasharray:none"
     d="m -1246.3357,559.6248 75.8057,24.52539 0,220.72851 -78.0353,35.6733 -82.4945,-2.22958 0,-278.69762 z"
     id="path4356"
     inkscape:connector-curvature="0"
     transform="matrix(0.28222223,0,0,0.28222223,-1.3919578e-6,0)" />
  <path
     inkscape:connector-curvature="0"
     id="path4358"
     d="m -356.88205,76.019833 21.39406,6.92161 0,62.294487 -22.0233,10.0678 -23.28178,-0.62924 0,-78.654657 z"
     style="fill:none;stroke:#000000;stroke-width:0.28222224px;stroke-linecap:butt;stroke-linejoin:miter;stroke-opacity:1;stroke-dasharray:none" />
  <g
     id="g4888"
     transform="translate(127.25225,-74.749576)">
    <g
       transform="translate(70.290935,-19.344416)"
       id="g4368">
      <path
         style="fill:#e5e5e5;fill-opacity:1;stroke:none"
         inkscape:connector-curvature="0"
         id="path4215"
         d="m -227.43891,277.85396 0.34741,8.05675 -2.32561,0.60206 -3.52425,-7.23432 z m 73.33853,-18.98062 -3.08419,11.12749 -36.31509,9.39731 -8.09459,-8.23474 z"
         class="sticker"
         sodipodi:nodetypes="cccccccccc" />
      <path
         style="fill:none;stroke:#000000;stroke-width:0.2;stroke-linecap:butt;stroke-linejoin:bevel;stroke-opacity:1;stroke-dasharray:0.5, 1;stroke-dashoffset:0"
         inkscape:connector-curvature="0"
         id="path4217"
         d="m -257.87169,165.25362 94.99185,4.74944 m -47.44932,-55.54303 53.10818,13.74781 m -67.47579,-17.46706 -12.32539,-3.19062 m -3.29118,9.94503 81.89419,16.62512 m -73.95078,42.09522 69.19224,-0.24429 m -69.19223,23.56265 69.19222,0.24429 m -77.13569,58.47605 81.89424,-16.62511 m -53.15622,-53.7544 -14.4908,0 m 15.73697,73.41467 53.10822,-13.74779 m -70.19477,-53.70531 64.06616,-0.0218 m 0.75638,-28.36996 -91.60209,-11.30606 10.58439,-27.84152 84.26639,12.72631 z m -62.1036,99.56415 -12.32541,3.1906 m 3.68196,11.34845 5.50245,-1.42449 m -0.12736,-6.14106 -7.03162,1.81612 m 7.58105,-91.88512 64.06616,0.0218 m -38.64357,89.49768 47.49387,-12.29006 m -50.09355,6.80298 48.6737,-12.57064 m -55.65624,-65.50022 48.16642,0 m -82.63711,11.61089 -13.25221,-0.0468 m 54.70549,-89.63495 48.67366,12.57065 m -72.04602,-18.60725 -7.0316,-1.81611 m -22.87496,108.54465 94.99185,-4.74945 m -80.73112,43.7061 84.26643,-12.72629 -3.24867,-26.42123 -91.60211,11.30608 z m -7.59978,-55.63744 -8.20224,-0.007"
         class="convex"
         sodipodi:nodetypes="cccccccccccccccccccccccccccccccccccccccccccccccccccccc" />
      <path
         style="fill:none;stroke:#000000;stroke-width:0.30000001;stroke-linecap:butt;stroke-linejoin:bevel;stroke-opacity:1;stroke-dasharray:none;stroke-dashoffset:0"
         d="m -233.26604,96.276136 -1.65806,5.750274 -2.02847,5.60035 -3.28965,9.94833 -3.29847,8.80181 -0.52917,1.41111 -9.11931,0.70556 -7.52298,20.65514 6.53521,5.22993 -3.6248,10.95375 -1.41993,11.05076 0.0706,0 -0.0882,0.14993 -0.097,5.63563 -0.29986,5.74146 -0.0265,0 0.32632,5.97076 0.11465,5.63563 1.41993,11.05958 3.67771,11.1125 0.43215,1.08479 -5.18583,6.24417 8.10507,21.8193 7.46125,-0.29986 0.13229,-0.0441 2.93688,7.84048 3.28965,9.93952 2.02847,5.60034 1.65806,5.75028 3.67771,7.05556 2.31951,-0.59972 -0.49389,-7.87577 -0.0441,-0.14111 -0.30868,-1.82563 -0.0705,-1.8168 0.16757,-1.78153 0.12347,-0.58208 0.26458,-1.2259 0.59091,-1.76389 0.79375,-1.66688 0.98777,-1.5434 0.635,-0.76729 0.51153,-0.68792 1.30528,-1.34056 1.45521,-1.12007 1.59632,-0.88194 1.72861,-0.60854 1.77271,-0.3175 1.77271,-0.009 1.72861,0.28222 1.67569,0.54681 0.82021,0.41451 0.78493,0.32632 1.49931,0.89958 1.39347,1.09361 1.26118,1.27882 0.79375,1.05834 0.30868,0.3616 0.9525,1.47284 0.74965,1.6316 0.54681,1.76389 0.0441,0.25576 8.09625,8.23736 36.31847,-9.40152 3.07798,-11.13014 -1.41993,-5.76792 -1.29645,-5.82965 -1.19945,-5.90903 -0.92604,-3.80118 6.86153,-8.75771 -0.74966,-6.11188 -0.74965,-6.11187 -8.44903,-5.60035 -0.44979,-5.50333 -0.29986,-5.97077 -0.16757,-5.96194 -0.0617,-5.93549 0.0617,-5.9443 0.16757,-5.96195 0.29986,-5.97076 0.13229,-3.45722 8.14035,-3.39549 1.37583,-12.56771 0.74966,-6.11187 -6.86153,-4.02167 0.92604,-6.32354 1.19945,-5.91785 1.29645,-5.82965 1.41993,-5.76792 -47.4927,-12.2943 -0.0441,0.25576 -0.54681,1.76389 -0.74965,1.6316 -0.9525,1.47284 -0.30868,0.37042 -0.79375,1.04951 -1.26118,1.27882 -1.39347,1.09361 -1.49931,0.89959 -0.78493,0.32632 -0.82021,0.41451 -1.67569,0.55563 -1.72861,0.2734 -1.77271,-0.009 -1.77271,-0.3175 -1.72861,-0.60854 -1.59632,-0.88195 -1.45521,-1.12007 -1.30528,-1.34055 -0.51153,-0.6791 -0.635,-0.77611 -0.98777,-1.5434 -0.79375,-1.65806 -0.59091,-1.77271 -0.26458,-1.2259 -0.12347,-0.58208 -0.16757,-1.77271 0.0705,-1.816808 0.30868,-1.834444 0.0441,-0.132292 -5.50333,-1.42875 z m 3.95993,37.570834 1.20826,0.0706 1.19063,0.2293 1.12007,0.37042 1.04951,0.51153 0.96132,0.635 0.85549,0.74965 0.50271,0.56444 0.25576,0.28223 0.64382,0.94368 0.52035,1.01423 0.39687,1.07597 0.23813,1.13771 0.097,1.17299 -0.0617,1.20826 -0.17638,0.93486 -0.0529,0.24695 -0.37042,1.12007 -0.51153,1.04069 -0.635,0.9525 -0.74965,0.86431 -0.85548,0.74965 -0.93487,0.64382 -1.01423,0.51153 -1.08479,0.38805 -0.78493,0.16757 -0.35278,0.0794 -1.18181,0.0882 -1.20826,-0.0617 -1.19063,-0.22931 -1.12007,-0.37924 -0.0441,-0.0176 -0.9966,-0.49389 -0.96132,-0.635 -0.86431,-0.74966 -0.75847,-0.84666 -0.64382,-0.94368 -0.52034,-1.01424 -0.38806,-1.07597 -0.24694,-1.13771 -0.097,-1.17299 0.0176,-0.25576 0.0529,-0.9525 0.22048,-1.18181 0.37924,-1.12007 0.51153,-1.04069 0.635,-0.9525 0.74965,-0.85549 0.84667,-0.75847 0.62618,-0.42333 0.3175,-0.21167 1.01423,-0.52035 1.08479,-0.38805 1.13771,-0.23813 1.17299,-0.097 z m -9.73667,40.21667 1.80799,0.11465 1.72861,0.37042 1.61396,0.67909 1.49048,0.97014 0.10584,0.097 1.29646,0.89076 1.26118,1.13771 1.10243,1.29646 0.91722,1.50812 0.37924,0.86431 0.36159,0.74965 0.54681,1.66688 0.33514,1.75507 0.10583,1.79034 -0.10583,1.78153 -0.33514,1.75507 -0.54681,1.66688 -0.36159,0.75847 -0.37924,0.85548 -0.91722,1.50813 -1.10243,1.29646 -1.26118,1.13771 -1.29646,0.89958 -0.10584,0.0882 -1.49048,0.97014 -1.61396,0.6791 -1.72861,0.37042 -1.80799,0.11465 -1.8168,-0.15875 -1.74625,-0.4057 -1.66688,-0.65263 -1.5875,-0.96132 -0.11465,-0.097 -1.32292,-0.9084 -1.29646,-1.15535 -1.14652,-1.31409 -0.97896,-1.45521 -0.41452,-0.83785 -0.38805,-0.74965 -0.5909,-1.66688 -0.37042,-1.75507 -0.12347,-1.60514 0.13229,-1.79916 0.37041,-1.75507 0.59091,-1.66688 0.37923,-0.74965 0.41452,-0.83785 0.97896,-1.45521 1.1377,-1.32291 1.29646,-1.15535 1.32292,-0.91722 -0.0706,-0.11466 0.0794,0 0.11465,-0.097 1.5875,-0.96132 1.66688,-0.64382 1.74625,-0.41451 1.8168,-0.15875 z m 10.01007,50.23556 1.18181,0.097 0.35278,0.0705 0.78493,0.16757 1.08479,0.38806 1.01423,0.52035 0.93487,0.635 0.85548,0.75847 0.74965,0.85549 0.635,0.9525 0.51153,1.04069 0.37042,1.12007 0.0529,0.24694 0.17638,0.93486 0.0617,1.20827 -0.097,1.17298 -0.23813,1.13771 -0.39687,1.07598 -0.52035,1.01423 -0.64382,0.94368 -0.25576,0.29104 -0.50271,0.55563 -0.85549,0.74965 -0.96132,0.635 -1.04951,0.51153 -1.12007,0.37924 -1.19063,0.2293 -1.20826,0.0617 -1.17299,-0.0882 -1.13771,-0.24694 -1.08479,-0.38806 -1.01423,-0.51153 -0.3175,-0.21166 -0.62618,-0.43215 -0.84667,-0.74966 -0.74965,-0.8643 -0.635,-0.9525 -0.51153,-1.0407 -0.37924,-1.12007 -0.22048,-1.1818 -0.0529,-0.9525 -0.0176,-0.25577 0.097,-1.17298 0.24694,-1.13771 0.38806,-1.07597 0.52034,-1.01424 0.64382,-0.94368 0.75847,-0.84667 0.86431,-0.74965 0.96132,-0.635 0.9966,-0.48507 0.0441,-0.0265 1.12007,-0.37041 1.19063,-0.22931 1.20826,-0.0705 z"
         id="path4221"
         inkscape:connector-curvature="0" />
    </g>
    <path
       sodipodi:nodetypes="cssssssc"
       inkscape:connector-curvature="0"
       id="rect4373"
       d="m -139.10047,178.55052 c 2.79556,0 5.32418,1.98157 5.32418,4.42175 l 0,20.08806 c 0,2.44018 -2.25057,4.40466 -5.04613,4.40466 l -54.00415,0 c -2.79555,0 -5.04613,-1.96448 -5.04613,-4.40466 l 0,-20.08806 c 0,-2.44018 2.29228,-4.34018 5.08783,-4.34018"
       style="fill:none;stroke:#000000;stroke-width:0.28222224;stroke-linecap:butt;stroke-linejoin:bevel;stroke-opacity:1;stroke-dasharray:none"
       transform="matrix(0.99273589,-0.12031401,0.12031401,0.99273589,0,0)" />
    <path
       style="fill:none;stroke:#000000;stroke-width:0.28222224;stroke-linecap:butt;stroke-linejoin:bevel;stroke-opacity:1;stroke-dasharray:none"
       d="m -116.6079,143.26645 c 2.77525,0.33634 5.52392,-1.32661 5.8175,-3.74906 l 2.41688,-19.94214 c 0.29359,-2.42245 -1.70428,-4.64344 -4.47953,-4.97978 l -53.61186,-6.49746 c -2.77524,-0.33634 -5.24583,1.34309 -5.53942,3.76554 l -2.41687,19.94214 c -0.29359,2.42246 1.75344,4.58445 4.52868,4.92079"
       id="path4886"
       inkscape:connector-curvature="0"
       sodipodi:nodetypes="cssssssc" />
  </g>
  <path
     style="fill:none;stroke:#000000;stroke-width:1.0629921;stroke-linecap:butt;stroke-linejoin:bevel;stroke-opacity:1;stroke-dasharray:none;stroke-dashoffset:0"
     d="M 609.96875 46.78125 L 537.84375 53.4375 L 431.34375 63.875 C 416.02256 65.374652 403.5625 75.17911 403.5625 89.25 L 403.5625 231.15625 C 403.5625 245.22714 416.02302 255.05468 431.34375 256.5625 L 605.40625 273.6875 C 620.72694 275.19532 633.1875 262.35214 633.1875 248.28125 L 633.1875 72.21875 C 633.1875 59.569074 623.13498 47.914942 609.96875 46.78125 z M 507.6875 130.03125 L 511.75 130.3125 L 515.65625 131.09375 L 519.375 132.375 L 522.84375 134.125 L 526.03125 136.28125 L 528.9375 138.8125 L 531.46875 141.71875 L 533.625 144.90625 L 535.375 148.375 L 536.65625 152.09375 L 537.4375 156 L 537.71875 160.0625 L 537.4375 164.125 L 536.65625 168.03125 L 535.375 171.75 L 533.625 175.21875 L 531.46875 178.40625 L 528.9375 181.3125 L 526.03125 183.84375 L 522.84375 186 L 519.375 187.75 L 515.65625 189.03125 L 511.75 189.8125 L 507.6875 190.09375 L 503.625 189.8125 L 499.71875 189.03125 L 496 187.75 L 492.53125 186 L 489.34375 183.84375 L 486.4375 181.3125 L 483.90625 178.40625 L 481.75 175.21875 L 480 171.75 L 478.71875 168.03125 L 477.9375 164.125 L 477.65625 160.0625 L 477.9375 156 L 478.71875 152.09375 L 480 148.375 L 481.75 144.90625 L 483.90625 141.71875 L 486.4375 138.8125 L 489.34375 136.28125 L 492.53125 134.125 L 496 132.375 L 499.71875 131.09375 L 503.625 130.3125 L 507.6875 130.03125 z "
     transform="matrix(0.28222223,0,0,0.28222223,-1.3919578e-6,0)"
     id="path4907" />
</svg>
