<?xml version='1.0' encoding='UTF-8' standalone='no'?>
    <svg xmlns='http://www.w3.org/2000/svg' xmlns:xlink='http://www.w3.org/1999/xlink' version='1.1'
    width='210.00mm' height='297.00mm' viewBox='0 0 210.00 297.00'>
<style type="text/css">
    path {
        fill: none;
        stroke-linecap: butt;
        stroke-linejoin: bevel;
        stroke-dasharray: none;
    }
    path.outer {
        stroke: #000000;
        stroke-dasharray: none;
        stroke-dashoffset: 0;
        stroke-width: 0.3;
        stroke-opacity: 1.0;
    }
    path.convex {
        stroke: #000000;
        stroke-dasharray: 0.50,1.00;
        stroke-dashoffset:0;
        stroke-width:0.2;
        stroke-opacity: 1.0
    }
    path.concave {
        stroke: #000000;
        stroke-dasharray: 1.00,0.50,0.20,0.50;
        stroke-dashoffset: 0;
        stroke-width: 0.2;
        stroke-opacity: 1.0
    }
    path.freestyle {
        stroke: #000000;
        stroke-dasharray: none;
        stroke-dashoffset: 0;
        stroke-width: 0.2;
        stroke-opacity: 1.0
    }
    path.outer_background {
        stroke: #ffffff;
        stroke-opacity: 1.0;
        stroke-width: 0.5
    }
    path.inner_background {
        stroke: #ffffff;
        stroke-opacity: 1.0;
        stroke-width: 0.2
    }
    path.sticker {
        fill: #e5e5e5;
        stroke: none;
        fill-opacity: 1.0;
    }
    path.arrow {
        fill: #000;
    }
    text {
        font-style: normal;
        fill: #000000;
        fill-opacity: 1.0;
        stroke: none;
    }
    text, tspan {
        text-anchor:middle;
    }
    </style>
<g>
<text transform='translate(74.02740139514208 290.99999107420444)' style='font-size:5.00'><tspan>[I2] Island 2</tspan></text>
<path class='sticker' d=' M 6.577717 61.912487 L 10.126913 57.358752 L 140.885745 75.579653 L 143.054803 80.930213 Z '/>
<path class='convex' d=' M 140.352552 171.738158 L 17.888727 153.093765
M 139.135380 134.823973 L 7.727788 116.168137
M 140.165527 108.335505 L 5.000000 89.457597
M 142.607768 245.300177 L 38.060424 226.648095
M 139.678110 159.773166 L 13.929598 141.182433
M 141.373147 94.680528 L 5.226274 75.704481
M 143.054803 232.233553 L 36.361837 213.450479
M 139.427786 121.752481 L 5.861212 102.992739
M 143.054803 80.930213 L 6.577717 61.912487
M 141.617601 258.700504 L 38.654485 240.197229
M 141.153445 183.528240 L 22.110569 164.794113
M 140.043815 272.317984 L 38.049948 253.938760
M 141.954322 195.318314 L 26.332411 176.494475
M 143.027877 219.563047 L 33.704950 200.699861
M 142.622312 207.283634 L 30.283957 188.408243
M 139.241909 147.494490 L 10.473413 128.900374 '/>
<path class='outer' d=' M 5.226274 75.704481 L 6.577717 61.912487 L 10.126913 57.358752 L 140.885745 75.579653 L 143.054803 80.930213 L 141.373147 94.680528 L 140.165527 108.335505 L 139.427786 121.752481 L 139.135380 134.823973 L 139.241909 147.494490 L 139.678110 159.773166 L 140.352552 171.738158 L 141.153445 183.528240 L 141.954322 195.318314 L 142.622312 207.283634 L 143.027877 219.563047 L 143.054803 232.233553 L 142.607768 245.300177 L 141.617601 258.700504 L 140.043815 272.317984 L 137.875547 285.999991 L 36.206898 267.673670 L 38.049948 253.938760 L 38.654485 240.197229 L 38.060424 226.648095 L 36.361837 213.450479 L 33.704950 200.699861 L 30.283957 188.408243 L 26.332411 176.494475 L 22.110569 164.794113 L 17.888727 153.093765 L 13.929598 141.182433 L 10.473413 128.900374 L 7.727788 116.168137 L 5.861212 102.992739 L 5.000000 89.457597 Z '/>
<g><path transform='matrix(4.920698 0.886982 -0.886982 4.920698 87.041219 276.836831)' class='arrow' d='M 0 0 L 1 1 L 0 0.25 L -1 1 Z'/><text transform='translate(86.242934 283.265459)' style='font-size:5.00'><tspan>1</tspan></text></g>
<text transform='matrix(0.990430 0.138014 -0.138014 0.990430 74.940470 70.529963)' style='font-size:4.50'><tspan>I1:1</tspan></text>
</g>
</svg>
